﻿"id";"name";"descr";"is_close";"created_at";"updated_at"
"812ab757-acfc-4a43-aee2-4cf5ad8eb77f";"Внешний";"";false;17.02.2014 8:22:32;17.02.2014 8:22:32
"c5851222-a197-4b4f-a81a-503a2cfb12ab";"Внутренний";"";false;17.02.2014 8:20:36;17.02.2014 8:20:36
